[
    {
        "name": "simple_car",
        "type": "car",
        "body_density": 1.0,
        "body_friction": 0.2,
        "body": { "RECT": [ { "x": -1.5, "y": 0.0 }, { "x": 1.5, "y": 2.0 } ] },
        "wheel1_density": 1.0,
        "wheel1_friction": 0.2,
        "wheel1": { "CIRCLE": [ { "x": -1.5, "y": 2.0 }, 1.0 ] },
        "wheel2_density": 1.0,
        "wheel2_friction": 0.2,
        "wheel2": { "CIRCLE": [ { "x": 1.5, "y": 2.0 }, 1.0 ] },
        "joint1_pos": { "x": -1.5, "y": 2.0 },
        "joint2_pos": { "x": 1.5, "y": 2.0 }
    }
]