{
    "effects": {
        "wind": 0
    },
    "win_conditions": [
        { "greaterThan": [ "time", 200 ] }
    ],
    "lose_conditions": [
        { "bodyEnteredArea": [ { "RECT": [ { "x": 20, "y": 0 }, { "x": 25, "y": 20 } ] } , "car1" ] }
    ],
    "blocks": [
        { "static_block": { "x": 0, "y": 10, "w": 20, "h": 2 } },
        { "shape_block": { "x": 1, "y": 1, "id": 4, "rotation": 0, "reflected": false } },
        { "shape_block": { "x": 2, "y": 1, "id": 4, "rotation": 0, "reflected": false } },
        { "shape_block": { "x": 4, "y":3, "id":0, "rotation": 0, "reflected": false } },
        { "shape_block": { "x": 4, "y":5, "id":0, "rotation": 0, "reflected": false } }
    ],
    "dynamic_objects": [
        { "simple_car": { "x": 10, "y": 5, "id": "car1" } },
        { "simple_car": { "x": 10, "y": 0, "id": "car2" } }
    ]
}
